<svg width="228" height="165" viewBox="0 0 228 165" fill="none" xmlns="http://www.w3.org/2000/svg">
<g clip-path="url(#clip0)">
<path opacity="0.1" d="M132.472 29.099C117.855 28.5889 103.923 23.8497 90.639 18.6657C77.3553 13.4817 64.1892 7.73698 49.9146 4.99003C40.737 3.22128 30.241 2.97252 22.8476 7.91406C15.7313 12.668 13.4327 20.8751 12.1963 28.4898C11.2663 34.2198 10.7268 40.2491 13.269 45.6144C15.0386 49.3375 18.179 52.4681 20.3517 56.0351C27.9088 68.4459 22.5663 83.7512 14.3752 95.8795C10.5337 101.572 6.07712 106.987 3.11305 113.04C0.14899 119.093 -1.22388 126.026 1.37072 132.199C3.94224 138.313 10.0677 142.913 16.7054 146.145C30.1864 152.703 46.071 154.579 61.561 155.654C95.8493 158.009 130.322 156.989 164.701 155.969C177.424 155.589 190.204 155.208 202.719 153.228C209.67 152.13 216.847 150.388 221.893 146.185C228.298 140.847 229.887 131.811 225.594 125.118C218.394 113.894 198.487 111.105 193.453 99.0586C190.685 92.4284 193.529 85.0414 197.555 78.8919C206.189 65.7011 220.665 54.1272 221.427 39.0475C221.952 28.6901 214.993 18.32 204.233 13.4185C192.956 8.27667 177.317 8.92598 168.998 17.424C160.431 26.1792 145.376 29.5481 132.472 29.099Z" fill="#626273"/>
<path d="M50.8531 152.851C50.8531 152.851 39.3076 144.085 37.1265 132.935C36.242 128.252 33.8696 123.983 30.365 120.769C28.6885 119.256 26.8777 117.902 24.9554 116.721" stroke="#535461" stroke-width="2" stroke-miterlimit="10"/>
<path d="M23.5426 109.696C24.5544 111.071 25.012 116.896 25.012 116.896C25.012 116.896 19.6024 114.756 18.5885 113.384C18.1016 112.724 17.8956 111.897 18.0159 111.085C18.1362 110.272 18.5728 109.541 19.2298 109.052C19.8867 108.563 20.7102 108.357 21.519 108.477C22.3278 108.598 23.0557 109.037 23.5426 109.696V109.696Z" fill="#626273"/>
<path d="M33.2449 114.267C33.3499 115.972 30.5852 121.112 30.5852 121.112C30.5852 121.112 27.1992 116.36 27.0922 114.655C27.0515 113.842 27.3314 113.045 27.8713 112.438C28.4113 111.831 29.1677 111.462 29.9768 111.411C30.7858 111.36 31.5823 111.631 32.1936 112.165C32.805 112.7 33.1819 113.455 33.2428 114.267H33.2449Z" fill="#626273"/>
<path d="M42.6492 127.405C41.8851 128.931 36.9121 131.967 36.9121 131.967C36.9121 131.967 36.381 126.149 37.1451 124.622C37.5213 123.905 38.163 123.364 38.9321 123.116C39.7013 122.869 40.5364 122.935 41.2578 123.299C41.9792 123.664 42.5292 124.299 42.7894 125.066C43.0496 125.834 42.9993 126.674 42.6492 127.405V127.405Z" fill="#626273"/>
<path d="M47.5386 138.949C47.0411 140.583 42.6516 144.418 42.6516 144.418C42.6516 144.418 41.1465 138.774 41.644 137.138C41.8831 136.353 42.423 135.696 43.1448 135.311C43.8666 134.925 44.7112 134.844 45.4929 135.084C46.2746 135.324 46.9292 135.866 47.3129 136.591C47.6965 137.316 47.7777 138.164 47.5386 138.949V138.949Z" fill="#626273"/>
<path d="M25.5807 125.244C27.2601 125.472 32.569 123.064 32.569 123.064C32.569 123.064 28.0893 119.337 26.4015 119.109C25.5915 119 24.7713 119.218 24.1216 119.716C23.4718 120.214 23.0456 120.951 22.9368 121.765C22.8279 122.578 23.0454 123.402 23.5412 124.054C24.037 124.707 24.7707 125.135 25.5807 125.244V125.244Z" fill="#626273"/>
<path d="M31.4692 138.675C33.1485 138.386 37.4876 134.497 37.4876 134.497C37.4876 134.497 32.101 132.288 30.4238 132.576C30.0222 132.642 29.6376 132.788 29.2923 133.004C28.9469 133.22 28.6476 133.503 28.4117 133.836C28.1757 134.169 28.0077 134.545 27.9174 134.944C27.8272 135.342 27.8164 135.755 27.8857 136.157C27.955 136.56 28.103 136.945 28.3212 137.29C28.5394 137.635 28.8235 137.933 29.1571 138.167C29.4906 138.401 29.8671 138.567 30.2646 138.654C30.6622 138.741 31.073 138.748 31.4734 138.675H31.4692Z" fill="#626273"/>
<path d="M38.9735 150.943C40.6759 150.943 45.609 147.846 45.609 147.846C45.609 147.846 40.6738 144.753 38.9714 144.753C38.1541 144.753 37.3703 145.079 36.7924 145.66C36.2144 146.24 35.8898 147.027 35.8898 147.848C35.8898 148.669 36.2144 149.456 36.7924 150.036C37.3703 150.617 38.1541 150.943 38.9714 150.943H38.9735Z" fill="#626273"/>
<path d="M163.013 77.0346C163.013 77.0346 170.129 64.3751 180.856 60.7279C185.361 59.2256 189.259 56.2971 191.965 52.3817C193.235 50.5098 194.33 48.5247 195.238 46.4514" stroke="#535461" stroke-width="2" stroke-miterlimit="10"/>
<path d="M201.972 44.1324C200.75 45.3214 195.064 46.5526 195.064 46.5526C195.064 46.5526 196.46 40.8816 197.681 39.6905C198.271 39.136 199.054 38.8362 199.862 38.8558C200.669 38.8753 201.437 39.2125 201.999 39.7948C202.562 40.3771 202.874 41.1579 202.869 41.9692C202.864 42.7804 202.542 43.5573 201.972 44.1324Z" fill="#626273"/>
<path d="M198.756 54.3844C197.077 54.7175 191.646 52.6473 191.646 52.6473C191.646 52.6473 195.886 48.6418 197.555 48.315C197.956 48.2257 198.37 48.2177 198.774 48.2914C199.178 48.3652 199.563 48.5192 199.907 48.7445C200.251 48.9697 200.546 49.2617 200.776 49.6032C201.006 49.9447 201.165 50.3289 201.245 50.7332C201.325 51.1375 201.324 51.5538 201.242 51.9576C201.159 52.3615 200.997 52.7447 200.766 53.0848C200.534 53.4249 200.236 53.7151 199.891 53.9383C199.546 54.1614 199.16 54.3131 198.756 54.3844V54.3844Z" fill="#626273"/>
<path d="M187.051 65.4902C185.443 64.9315 181.788 60.3864 181.788 60.3864C181.788 60.3864 187.456 59.0835 189.068 59.6422C189.455 59.7712 189.813 59.9762 190.121 60.2453C190.429 60.5144 190.681 60.8423 190.861 61.2098C191.042 61.5773 191.148 61.9772 191.173 62.3862C191.199 62.7953 191.143 63.2053 191.01 63.5926C190.876 63.9799 190.667 64.3366 190.395 64.6422C190.123 64.9477 189.794 65.196 189.425 65.3725C189.057 65.5491 188.657 65.6504 188.25 65.6706C187.842 65.6908 187.435 65.6295 187.051 65.4902V65.4902Z" fill="#626273"/>
<path d="M176.295 71.8906C174.615 71.6124 170.257 67.7439 170.257 67.7439C170.257 67.7439 175.629 65.4966 177.306 65.7748C178.114 65.9082 178.835 66.3581 179.312 67.0257C179.789 67.6933 179.982 68.5238 179.85 69.3345C179.717 70.1452 179.269 70.8697 178.604 71.3487C177.939 71.8277 177.112 72.0219 176.305 71.8885L176.295 71.8906Z" fill="#626273"/>
<path d="M186.904 48.2138C186.902 49.9235 189.99 54.8841 189.99 54.8841C189.99 54.8841 193.074 49.9299 193.074 48.2222C193.084 47.8092 193.013 47.3981 192.863 47.0134C192.713 46.6286 192.487 46.2779 192.2 45.9819C191.913 45.6859 191.57 45.4507 191.191 45.2901C190.812 45.1294 190.405 45.0467 189.993 45.0467C189.582 45.0467 189.174 45.1294 188.795 45.2901C188.416 45.4507 188.073 45.6859 187.786 45.9819C187.499 46.2779 187.273 46.6286 187.124 47.0134C186.974 47.3981 186.902 47.8092 186.913 48.2222L186.904 48.2138Z" fill="#626273"/>
<path d="M174.428 55.858C174.936 57.4897 179.353 61.295 179.353 61.295C179.353 61.295 180.822 55.6409 180.31 54.0092C180.045 53.2532 179.497 52.6302 178.783 52.2714C178.07 51.9126 177.245 51.846 176.483 52.0856C175.721 52.3252 175.082 52.8524 174.699 53.556C174.317 54.2597 174.221 55.0849 174.433 55.858H174.428Z" fill="#626273"/>
<path d="M163.33 64.959C163.557 66.6455 167.268 71.1507 167.268 71.1507C167.268 71.1507 169.663 65.8276 169.437 64.1347C169.392 63.7245 169.265 63.3275 169.065 62.9671C168.865 62.6066 168.596 62.2899 168.272 62.0357C167.948 61.7815 167.577 61.5949 167.181 61.4868C166.784 61.3787 166.37 61.3513 165.963 61.4062C165.556 61.4612 165.163 61.5974 164.809 61.8068C164.455 62.0163 164.147 62.2947 163.901 62.6257C163.656 62.9567 163.479 63.3337 163.381 63.7344C163.283 64.1351 163.265 64.5515 163.33 64.959V64.959Z" fill="#626273"/>
<path opacity="0.25" d="M201.972 44.1324C200.75 45.3214 195.064 46.5526 195.064 46.5526C195.064 46.5526 196.46 40.8816 197.681 39.6905C198.271 39.136 199.054 38.8362 199.862 38.8558C200.669 38.8753 201.437 39.2125 201.999 39.7948C202.562 40.3771 202.874 41.1579 202.869 41.9692C202.864 42.7804 202.542 43.5573 201.972 44.1324Z" fill="black"/>
<path opacity="0.25" d="M198.756 54.3844C197.077 54.7175 191.646 52.6473 191.646 52.6473C191.646 52.6473 195.886 48.6418 197.555 48.315C197.956 48.2257 198.37 48.2177 198.774 48.2914C199.178 48.3652 199.563 48.5192 199.907 48.7445C200.251 48.9697 200.546 49.2617 200.776 49.6032C201.006 49.9447 201.165 50.3289 201.245 50.7332C201.325 51.1375 201.324 51.5538 201.242 51.9576C201.159 52.3615 200.997 52.7447 200.766 53.0848C200.534 53.4249 200.236 53.7151 199.891 53.9383C199.546 54.1614 199.16 54.3131 198.756 54.3844V54.3844Z" fill="black"/>
<path opacity="0.25" d="M187.051 65.4902C185.443 64.9315 181.788 60.3864 181.788 60.3864C181.788 60.3864 187.456 59.0835 189.068 59.6422C189.455 59.7712 189.813 59.9762 190.121 60.2453C190.429 60.5144 190.681 60.8423 190.861 61.2098C191.042 61.5773 191.148 61.9772 191.173 62.3862C191.199 62.7953 191.143 63.2053 191.01 63.5926C190.876 63.9799 190.667 64.3366 190.395 64.6422C190.123 64.9477 189.794 65.196 189.425 65.3725C189.057 65.5491 188.657 65.6504 188.25 65.6706C187.842 65.6908 187.435 65.6295 187.051 65.4902V65.4902Z" fill="black"/>
<path opacity="0.25" d="M176.295 71.8906C174.615 71.6124 170.257 67.7439 170.257 67.7439C170.257 67.7439 175.629 65.4966 177.306 65.7748C178.114 65.9082 178.835 66.3581 179.312 67.0257C179.789 67.6933 179.982 68.5238 179.85 69.3345C179.717 70.1452 179.269 70.8697 178.604 71.3487C177.939 71.8277 177.112 72.0219 176.305 71.8885L176.295 71.8906Z" fill="black"/>
<path opacity="0.25" d="M186.904 48.2138C186.902 49.9235 189.99 54.8841 189.99 54.8841C189.99 54.8841 193.074 49.9299 193.074 48.2222C193.084 47.8092 193.013 47.3981 192.863 47.0134C192.713 46.6286 192.487 46.2779 192.2 45.9819C191.913 45.6859 191.57 45.4507 191.191 45.2901C190.812 45.1294 190.405 45.0467 189.993 45.0467C189.582 45.0467 189.174 45.1294 188.795 45.2901C188.416 45.4507 188.073 45.6859 187.786 45.9819C187.499 46.2779 187.273 46.6286 187.124 47.0134C186.974 47.3981 186.902 47.8092 186.913 48.2222L186.904 48.2138Z" fill="black"/>
<path opacity="0.25" d="M174.428 55.858C174.936 57.4897 179.353 61.295 179.353 61.295C179.353 61.295 180.822 55.6409 180.31 54.0092C180.045 53.2532 179.497 52.6302 178.783 52.2714C178.07 51.9126 177.245 51.846 176.483 52.0856C175.721 52.3252 175.082 52.8524 174.699 53.556C174.317 54.2597 174.221 55.0849 174.433 55.858H174.428Z" fill="black"/>
<path opacity="0.25" d="M163.33 64.959C163.557 66.6455 167.268 71.1507 167.268 71.1507C167.268 71.1507 169.663 65.8276 169.437 64.1347C169.392 63.7245 169.265 63.3275 169.065 62.9671C168.865 62.6066 168.596 62.2899 168.272 62.0357C167.948 61.7815 167.577 61.5949 167.181 61.4868C166.784 61.3787 166.37 61.3513 165.963 61.4062C165.556 61.4612 165.163 61.5974 164.809 61.8068C164.455 62.0163 164.147 62.2947 163.901 62.6257C163.656 62.9567 163.479 63.3337 163.381 63.7344C163.283 64.1351 163.265 64.5515 163.33 64.959V64.959Z" fill="black"/>
<path d="M163.422 76.7837C163.422 76.7837 164.82 62.3133 173.146 54.6184C176.657 51.4115 179.039 47.148 179.935 42.467C180.342 40.2416 180.545 37.9834 180.541 35.7208" stroke="#535461" stroke-width="2" stroke-miterlimit="10"/>
<path d="M185.76 30.8383C185.13 32.4236 180.42 35.8641 180.42 35.8641C180.42 35.8641 179.408 30.111 180.044 28.5256C180.35 27.7644 180.945 27.1565 181.697 26.8356C182.45 26.5148 183.298 26.5073 184.056 26.8148C184.814 27.1223 185.42 27.7197 185.739 28.4754C186.059 29.2311 186.066 30.0834 185.76 30.8446V30.8383Z" fill="#626273"/>
<path d="M186.959 41.5309C185.567 42.5133 179.759 42.8359 179.759 42.8359C179.759 42.8359 182.021 37.4516 183.413 36.4692C183.743 36.2211 184.12 36.0421 184.52 35.9426C184.92 35.8432 185.336 35.8255 185.743 35.8904C186.15 35.9554 186.54 36.1017 186.89 36.3208C187.24 36.5399 187.543 36.8272 187.78 37.1658C188.017 37.5044 188.184 37.8873 188.272 38.292C188.359 38.6967 188.364 39.1148 188.288 39.5216C188.211 39.9284 188.054 40.3157 187.826 40.6605C187.598 41.0053 187.303 41.3005 186.959 41.5288V41.5309Z" fill="#626273"/>
<path d="M180.733 56.4525C179.036 56.5959 173.86 53.9227 173.86 53.9227C173.86 53.9227 178.52 50.4232 180.216 50.2798C181.031 50.211 181.839 50.47 182.463 50.9998C183.088 51.5296 183.477 52.2868 183.546 53.1047C183.614 53.9227 183.356 54.7345 182.829 55.3616C182.301 55.9886 181.547 56.3795 180.733 56.4483V56.4525Z" fill="#626273"/>
<path d="M173.488 66.675C171.84 67.0967 166.29 65.3532 166.29 65.3532C166.29 65.3532 170.293 61.1137 171.941 60.6836C172.732 60.4776 173.572 60.5956 174.277 61.0117C174.981 61.4278 175.492 62.108 175.697 62.9025C175.902 63.697 175.785 64.5408 175.371 65.2483C174.956 65.9558 174.279 66.469 173.488 66.675V66.675Z" fill="#626273"/>
<path d="M173.635 40.713C174.323 42.2751 179.139 45.5618 179.139 45.5618C179.139 45.5618 179.958 39.7769 179.269 38.2148C178.926 37.4839 178.312 36.9168 177.558 36.6346C176.804 36.3524 175.97 36.3775 175.234 36.7045C174.499 37.0316 173.92 37.6346 173.621 38.3848C173.322 39.135 173.327 39.9728 173.635 40.7193V40.713Z" fill="#626273"/>
<path d="M165.314 52.7759C166.437 54.0597 172.008 55.7421 172.008 55.7421C172.008 55.7421 171.068 49.9762 169.944 48.6924C169.679 48.3805 169.355 48.1246 168.991 47.9396C168.626 47.7546 168.229 47.6442 167.822 47.6147C167.414 47.5853 167.005 47.6374 166.618 47.7681C166.231 47.8988 165.874 48.1054 165.567 48.376C165.26 48.6466 165.01 48.9757 164.831 49.3442C164.652 49.7127 164.548 50.1133 164.524 50.5227C164.5 50.932 164.558 51.342 164.694 51.7288C164.829 52.1157 165.04 52.4716 165.314 52.7759V52.7759Z" fill="#626273"/>
<path d="M158.829 65.6188C159.719 67.0735 164.928 69.6771 164.928 69.6771C164.928 69.6771 164.972 63.8353 164.088 62.3786C163.648 61.706 162.964 61.2319 162.182 61.0569C161.4 60.8819 160.581 61.0198 159.898 61.4413C159.216 61.8627 158.723 62.5347 158.526 63.3146C158.328 64.0945 158.441 64.921 158.84 65.6188H158.829Z" fill="#626273"/>
<path d="M152.717 20.114C153.065 18.8301 153.485 17.5399 153.779 16.2392C153.426 17.5399 153.004 18.8344 152.717 20.114Z" fill="url(#paint0_linear)"/>
<path d="M151.155 32.4805C151.125 32.43 151.104 32.3794 151.081 32.333C151.081 32.3119 151.06 32.295 151.052 32.2739C151.006 32.2956 150.959 32.3146 150.911 32.3309C150.819 32.3667 150.725 32.4004 150.628 32.4278C150.531 32.4553 150.492 32.47 150.418 32.4869C150.357 32.5079 150.295 32.5242 150.231 32.5354L150.248 32.5733C150.326 32.5564 150.401 32.5417 150.479 32.5206L150.5 32.782C150.588 32.782 150.67 32.7694 150.75 32.7694C150.787 32.7673 150.825 32.7673 150.863 32.7694C151.027 32.7694 151.17 32.7694 151.283 32.7694C151.239 32.6745 151.193 32.5754 151.155 32.4805ZM193.769 100.602C192.782 99.2673 190.813 84.9444 190.813 84.9444C190.813 84.9444 186.94 74.7599 187.996 70.6953C189.052 66.6308 185.111 56.2312 185.111 56.2312C185.111 56.2312 182.508 55.0949 182.368 53.4083C182.368 53.4083 171.74 50.0353 171.242 47.5055C170.839 45.431 164.248 43.9427 161.88 43.4725C161.158 40.5464 160.431 37.8163 159.896 36.3258C159.751 35.8621 159.615 35.4615 159.489 35.1453C158.584 32.8263 155.788 32.6155 153.76 32.801C153.672 32.4057 153.509 32.0313 153.279 31.6984C153.246 31.584 153.179 31.482 153.088 31.4054C153.045 31.3681 152.998 31.3343 152.95 31.3042C152.913 31.2359 152.865 31.1745 152.807 31.1229C152.749 31.0708 152.686 31.0255 152.618 30.988C152.569 30.9615 152.519 30.9382 152.467 30.9184C152.345 30.8719 152.219 30.8373 152.091 30.8151C151.942 30.7842 151.79 30.7645 151.638 30.7561C152.008 30.5933 152.339 30.3508 152.605 30.0456C152.787 29.8314 152.922 29.5815 153.002 29.312C153.069 29.0878 153.098 28.8543 153.09 28.6205C153.036 28.7168 152.973 28.8079 152.901 28.8924C152.99 27.9585 152.498 27.0099 152.217 26.0801C151.876 24.8698 151.813 23.5976 152.032 22.3592C152.314 20.4914 153.011 18.6025 153.483 16.7009C153.484 16.6904 153.484 16.6798 153.483 16.6693C153.731 15.7249 153.884 14.7581 153.941 13.7832C154.022 11.8163 153.521 9.85358 152.715 8.06164C151.999 6.47419 150.943 4.91203 149.326 4.26694C148.126 3.77995 146.78 3.85795 145.487 3.77784C142.586 3.59654 139.819 2.57197 137.061 1.64016C134.303 0.708348 131.464 -0.139136 128.561 0.023193C125.658 0.185522 122.671 1.59167 121.346 4.17207C120.926 4.97739 120.685 5.87336 120.183 6.63019C119.243 8.05742 117.559 8.77209 116.155 9.75661C114.751 10.7411 113.514 12.1388 113.006 13.8064C112.729 14.7048 112.69 15.6604 112.893 16.5786V16.5786C112.939 16.786 112.997 16.9902 113.069 17.19C113.268 17.747 113.579 18.2572 113.982 18.6889C114.286 19.008 114.636 19.2801 115.019 19.4963V19.4963C115.501 19.7644 116.016 19.9658 116.552 20.0951C116.533 20.1583 116.514 20.2258 116.493 20.2911C116.459 20.3986 116.43 20.5019 116.398 20.6179C116.329 20.8772 116.264 21.1407 116.21 21.4063C116.207 21.4253 116.207 21.4444 116.21 21.4633C115.952 22.6624 115.822 23.8857 115.823 25.1125C115.823 25.6927 115.852 26.2725 115.911 26.8496V26.8496C116.751 35.4046 123.783 42.1528 132.472 42.5913C132.77 42.6061 133.07 42.6145 133.375 42.6145C133.513 42.6145 133.65 42.6145 133.795 42.6145C133.931 42.7958 134.065 42.9813 134.193 43.1626C134.321 43.3439 134.439 43.5295 134.55 43.7108L134.246 43.3945L133.941 43.1142C133.859 43.2279 133.767 43.3344 133.666 43.4325C133.468 43.3624 133.265 43.3046 133.06 43.2596V43.2596C132.189 43.0657 130.862 42.994 129.115 43.5231C127.51 44.0059 125.547 44.9989 123.25 46.8857L112.059 53.6318L106.005 57.3295L103.824 62.6843C103.824 62.6843 102.185 69.0467 100.361 76.3368C100.289 76.3579 100.22 76.3789 100.151 76.4042C100.003 76.3873 99.8544 76.3789 99.7057 76.3789C98.6473 76.3764 97.6291 76.786 96.865 77.5215C96.1009 78.257 95.6504 79.2612 95.608 80.3233C91.9806 84.7505 91.7749 89.1776 92.6272 91.2099C92.7044 91.4003 92.8015 91.5819 92.9169 91.7517C93.4753 92.5612 94.5186 94.6483 95.5766 96.8724C95.5493 97.0558 95.5325 97.2097 95.5241 97.3257C95.5222 97.3636 95.5222 97.4016 95.5241 97.4395C95.5241 97.4395 96.1538 106.992 94.0546 109.73C93.5949 110.327 93.6642 111.111 94.0546 111.98C95.4611 115.104 101.022 119.276 101.022 119.276C101.022 119.276 107.691 119.24 111.407 118.833C111.396 119.208 111.388 119.582 111.379 119.946C111.295 123.631 111.295 126.72 111.295 126.72L111.157 130.584C111.157 130.584 109.897 138.728 109.268 140.973C108.871 142.381 109.328 155.42 109.727 165.006H175.436C176.209 159.335 175.119 142.105 175.119 142.105C175.119 142.105 174.084 137.651 174.047 133.767C174.045 133.763 174.043 133.759 174.043 133.754C174.043 133.749 174.045 133.744 174.047 133.74C174.047 133.401 174.047 133.07 174.059 132.745L174.536 132.728L175.392 132.699H175.47C175.47 132.699 175.491 132.619 175.539 132.488C175.652 132.162 175.807 131.853 175.999 131.567C176.364 131.025 176.935 130.493 177.794 130.458C178.268 130.439 179.003 130.053 179.832 129.484C179.838 129.485 179.843 129.485 179.849 129.484C182.08 127.968 185.03 125.17 185.745 124.711C186.73 124.078 191.445 119.862 191.445 119.862C191.445 119.862 192.148 118.968 192.897 117.891L192.925 117.853C193.857 116.504 194.848 114.891 194.604 114.383C194.184 113.472 194.885 111.294 194.885 111.294C197.075 107.27 194.755 101.936 193.769 100.602ZM153.176 35.7588C153.197 35.8217 153.209 35.8868 153.214 35.9527C153.162 35.8831 153.109 35.8093 153.057 35.7419L153.006 35.6744L152.971 35.6238L153.05 35.5142C153.05 35.5142 153.05 35.5142 153.05 35.529C153.106 35.5973 153.149 35.6752 153.176 35.7588V35.7588ZM152.471 33.8909C152.242 33.9373 152.062 33.9795 151.944 34.0111C151.795 33.7455 151.652 33.4798 151.524 33.21C151.861 33.4061 152.178 33.6341 152.471 33.8909V33.8909ZM152.076 34.224C152.076 34.2198 152.076 34.2156 152.076 34.2114L152.093 34.224C152.179 34.2809 152.263 34.3357 152.341 34.3927C152.41 34.4433 152.473 34.4917 152.536 34.5423C152.494 34.6161 152.448 34.692 152.402 34.7532C152.328 34.6372 152.259 34.5255 152.192 34.4095C152.15 34.3631 152.112 34.2999 152.076 34.224ZM150.817 31.6225C151.222 31.5823 151.631 31.5823 152.037 31.6225V31.6225C152.093 31.6225 152.144 31.6331 152.194 31.6415C152.308 31.6592 152.42 31.6881 152.528 31.7279C152.776 32.0765 152.929 32.4843 152.971 32.9106L152.857 32.9275L152.746 32.9486C152.536 32.9844 152.326 33.0202 152.162 33.054L151.953 33.0982C151.673 33.1594 151.512 33.2058 151.505 33.2079C151.478 33.1509 151.451 33.0982 151.421 33.0434C151.375 32.9528 151.327 32.86 151.285 32.7694C151.243 32.6787 151.188 32.5754 151.144 32.4805C151.115 32.43 151.094 32.3794 151.071 32.333C151.071 32.3119 151.05 32.295 151.042 32.2739C151.029 32.2516 151.019 32.2283 151.01 32.2044C150.882 31.943 150.764 31.6816 150.651 31.4244C150.638 31.3991 150.628 31.3717 150.617 31.3464L150.777 31.3358V31.3906L150.817 31.6225ZM100.732 162.401C100.715 159.262 100.489 155.865 99.8589 152.678C99.5902 151.322 99.3131 149.967 99.0318 148.634C98.9605 148.301 98.8912 147.972 98.8219 147.643L98.1754 147.73H98.1166C96.3533 139.379 94.5102 132.022 94.5102 132.022C94.5102 132.022 90.8492 117.984 91.2732 116.864C91.3278 116.719 91.2585 116.327 91.1032 115.751C90.2173 112.559 86.5185 103.764 85.2254 100.758C85.2254 100.745 85.2149 100.73 85.2107 100.72C85.0008 100.216 84.8497 99.8766 84.8035 99.7775L85.1079 95.2913L85.1247 95.0215L85.1645 94.448L85.1477 94.4333L85.1645 94.1677C85.1645 94.1677 81.9696 91.5367 76.5578 89.6372C76.3479 89.5613 76.1254 89.4875 75.905 89.4158C76.1758 87.6007 76.5347 85.5516 77.0029 83.5551C77.0469 83.3549 77.0952 83.1609 77.1456 82.9649C77.1897 82.7688 77.2401 82.5791 77.2905 82.3872C77.3702 82.0752 77.4563 81.7674 77.5445 81.4638C77.8362 81.3711 78.1238 81.2678 78.4072 81.1581L78.5164 81.116C82.0075 79.7517 84.8882 77.1632 86.625 73.8299C88.3618 70.4965 88.837 66.644 87.9628 62.9857V62.9857C87.4643 60.911 86.5437 58.9622 85.259 57.2621C85.1624 57.1314 85.0596 57.0006 84.9567 56.8721C84.8539 56.7435 84.73 56.6001 84.6145 56.4694C85.2212 55.0843 85.937 53.7667 85.9958 52.4196C86.0063 52.249 86.0063 52.0779 85.9958 51.9073V51.8862C85.9182 51.0198 85.5361 50.1428 84.646 49.2215C83.3466 47.8702 81.4972 47.185 79.6478 46.8561C77.7985 46.5273 75.9134 46.5188 74.0535 46.2975C70.9698 45.9264 67.9658 44.9714 64.8821 44.6784C61.0838 44.3252 57.2597 44.9794 53.7921 46.5758C51.4976 47.6298 49.1738 49.4724 49.0353 52.0001C48.9219 54.0893 50.3704 56.092 50.0051 58.1559C49.6419 60.184 47.5847 61.7799 47.7653 63.8311C47.8345 64.6322 48.2439 65.349 48.7561 65.9878C48.9324 66.1986 49.1192 66.4094 49.3124 66.6202C50.0597 67.415 50.8826 68.1782 51.3003 69.1795C51.3171 69.2217 51.3339 69.2639 51.3486 69.306C51.7034 70.2948 51.5438 71.5449 50.6663 72.112C50.6712 72.1158 50.6749 72.1209 50.6768 72.1268V72.1268C50.6894 72.1436 50.702 72.1563 50.7125 72.1731C50.7138 72.1697 50.7138 72.166 50.7125 72.1626C51.0236 72.533 51.443 72.7956 51.9112 72.9131L52.0896 72.9679C51.9448 73.126 51.8083 73.2905 51.6698 73.4633L51.5795 73.5835C51.3482 73.8959 51.1378 74.2234 50.9497 74.5638C50.8427 74.7535 50.7398 74.9433 50.6538 75.133C50.366 75.7113 50.1577 76.3262 50.0345 76.9608C49.8099 78.3564 50.1269 79.811 49.7868 81.1771C49.3669 82.8637 48.0382 84.1581 47.2887 85.7244C45.8697 88.6759 46.6737 92.1396 46.9592 95.3988C47.3475 99.826 46.7178 104.272 46.0901 108.67C45.757 111.008 45.424 113.349 45.0909 115.692C44.2512 121.572 43.4115 127.453 42.5718 133.333C42.2654 135.488 41.9022 137.76 40.4727 139.424H40.4873C40.4873 139.424 40.4874 139.436 40.4727 139.441C40.9018 139.629 41.3582 139.747 41.8245 139.791V139.791C43.6907 139.978 45.6682 139.072 47.3475 138.081C48.6775 137.309 49.937 136.421 51.1114 135.427C50.9392 136.059 50.7545 136.748 50.5572 137.491C50.5578 137.498 50.5578 137.505 50.5572 137.512V137.512C48.1872 146.577 44.3751 163.195 44.3751 163.195C44.3751 163.195 44.0287 163.918 43.5795 164.996H102.777C102.084 164.153 101.44 163.345 100.936 162.694L100.732 162.401ZM56.901 78.5799C56.9157 78.5546 56.9262 78.5314 56.9408 78.5082C56.9408 78.5756 56.9408 78.641 56.9408 78.7042C56.9408 78.7675 56.9408 78.8244 56.9408 78.8834C56.9408 78.9425 56.9408 78.9361 56.9408 78.9657C56.9408 78.9952 56.9408 78.9657 56.9408 78.9657C56.9408 79.0521 56.922 79.1385 56.9073 79.225C56.9073 79.225 56.9073 79.2355 56.9073 79.2439L57.1172 79.3219L57.3607 79.4231C58.7993 79.9937 60.2562 80.5102 61.7312 80.9726C61.8824 81.0211 62.0356 81.0675 62.1888 81.1118L62.2203 81.3732C62.2581 81.6409 62.2938 81.9129 62.3274 82.1848C62.3274 82.1848 62.3274 82.1975 62.3274 82.2059C62.4218 82.9585 62.5142 83.709 62.5961 84.4427C62.5961 84.4427 58.742 82.967 58.7902 85.2079C58.788 85.248 58.788 85.2881 58.7902 85.3281C58.786 85.3814 58.786 85.435 58.7902 85.4883C58.8259 87.2339 59.3696 88.269 59.4788 88.8003C59.4722 88.8223 59.4607 88.8425 59.4452 88.8593C59.3521 89.0628 59.32 89.2892 59.3528 89.5107C59.3492 89.8878 59.3787 90.2646 59.441 90.6365C59.3276 90.706 59.2164 90.7756 59.1051 90.8473C59.0212 90.9 58.9414 90.959 58.8595 91.018C58.3445 89.2241 57.6708 87.48 56.8464 85.8067C56.2691 84.6134 55.6205 83.3696 55.6267 82.0604C55.6267 81.9761 55.6268 81.8897 55.6372 81.8032C55.6606 81.4238 55.7326 81.049 55.8514 80.688C55.8996 80.551 55.9521 80.4161 56.0109 80.2833C56.1481 79.9677 56.3015 79.6595 56.4706 79.3599C56.5798 79.1617 56.6952 78.9657 56.8065 78.7675C56.8422 78.7085 56.8758 78.6473 56.9094 78.5883L56.901 78.5799ZM151.155 32.4805C151.125 32.43 151.104 32.3794 151.081 32.333C151.081 32.3119 151.06 32.295 151.052 32.2739C151.006 32.2956 150.959 32.3146 150.911 32.3309C150.819 32.3667 150.725 32.4004 150.628 32.4278C150.531 32.4553 150.492 32.47 150.418 32.4869L150.231 32.5354L150.248 32.5733C150.326 32.5564 150.401 32.5417 150.479 32.5206L150.5 32.782C150.588 32.782 150.67 32.7694 150.75 32.7694H150.863C151.027 32.7694 151.17 32.7694 151.283 32.7694C151.239 32.6745 151.193 32.5754 151.155 32.4805Z" fill="url(#paint1_linear)"/>
<path d="M105.287 63.4454L104.028 64.004C104.028 64.004 95.8177 96.0355 95.8177 98.6244C95.8177 101.213 113.226 115.618 113.226 115.618L115.943 97.2056C115.943 97.2056 112.042 54.9811 105.287 63.4454Z" fill="#E8F5FF"/>
<path d="M143.474 53.2565L136.2 49.4449C135.793 47.7007 135.07 46.0465 134.067 44.5645C133.003 43.0213 131.588 41.5056 129.825 40.715C125.368 38.708 148.676 28.1735 148.676 28.1735C149.043 29.439 149.475 30.6845 149.971 31.905C151.172 34.8817 153.164 38.7312 155.731 39.8275C160.095 41.6932 143.474 53.2565 143.474 53.2565Z" fill="#FFC1C7"/>
<path opacity="0.1" d="M149.971 31.905C148.975 35.4224 146.904 38.5369 144.05 40.8084C141.197 43.0799 137.705 44.3938 134.067 44.5645C133.003 43.0213 131.588 41.5056 129.825 40.715C125.368 38.708 148.676 28.1735 148.676 28.1735C149.043 29.439 149.475 30.6845 149.971 31.905V31.905Z" fill="black"/>
<path d="M150.626 26.5861C150.626 30.0359 149.609 33.4084 147.701 36.2771C145.793 39.1459 143.081 41.382 139.907 42.7026C136.734 44.0233 133.242 44.3691 129.873 43.6965C126.504 43.0238 123.409 41.3629 120.98 38.9237C118.551 36.4845 116.896 33.3766 116.226 29.9932C115.556 26.6097 115.9 23.1026 117.215 19.9155C118.529 16.7284 120.755 14.0044 123.612 12.0881C126.468 10.1717 129.826 9.14906 133.261 9.14948C135.544 9.13887 137.807 9.58263 139.918 10.4551C142.03 11.3276 143.948 12.6116 145.562 14.2328C147.177 15.854 148.456 17.7804 149.325 19.9007C150.194 22.021 150.636 24.2933 150.626 26.5861V26.5861Z" fill="#FFC1C7"/>
<path d="M153.132 51.0177L148.396 62.1151L144.219 69.481H130.847L126.947 59.4103L128.527 48.9664H138.74L145.333 48.5933L147.561 47.847L148.997 48.665L153.132 51.0177Z" fill="#575A89"/>
<path opacity="0.1" d="M151.501 36.2246C151.501 36.2246 154.455 36.8571 151.81 39.0348C149.165 41.2126 140.04 48.1379 140.04 48.1379C140.04 48.1379 143.245 51.005 142.582 54.3633L153.202 48.4183L155.091 38.9062C155.091 38.9062 155.303 36.0476 151.501 36.2246Z" fill="black"/>
<path opacity="0.1" d="M142.128 48.1379L135.373 49.2574C135.373 49.2574 136.767 54.4329 136.07 55.9023C136.049 55.948 136.031 55.9952 136.018 56.0436L133.261 63.5255L135.327 69.4009L142.477 59.6085L140.04 55.9023C140.04 55.9023 142.615 52.4744 144.148 51.2854C145.68 50.0964 142.128 48.1379 142.128 48.1379Z" fill="black"/>
<path d="M142.128 47.8491L135.373 48.9664C135.373 48.9664 136.767 54.142 136.07 55.6114C136.049 55.6571 136.031 55.7043 136.018 55.7526L133.261 63.2345L135.327 69.11L142.477 59.3112L140.04 55.6051C140.04 55.6051 142.615 52.1772 144.148 50.9882C145.68 49.7992 142.128 47.8491 142.128 47.8491Z" fill="#DCE6F2"/>
<path d="M151.785 35.666C151.785 35.666 154.738 36.2984 152.091 38.4762C149.444 40.6539 140.04 48.1379 140.04 48.1379C140.04 48.1379 143.522 50.4463 142.861 53.8026L153.481 47.8596L155.37 38.3476C155.37 38.3476 155.58 35.4889 151.785 35.666Z" fill="#575A89"/>
<path opacity="0.1" d="M134.531 45.2244C134.531 45.2244 135.175 46.4345 138.02 48.6165C138.02 48.6165 133.284 51.1463 135.096 54.7028L127.851 52.8054L126.737 49.3079L134.531 45.2244Z" fill="black"/>
<path d="M134.252 44.9462C134.252 44.9462 134.897 46.1563 137.741 48.3382C137.741 48.3382 133.005 50.8554 134.817 54.4224L127.575 52.525L126.46 49.0297L134.252 44.9462Z" fill="#575A89"/>
<path opacity="0.1" d="M153.132 51.0177L148.396 62.1151L144.227 69.481H130.847L126.947 59.4103L128.525 48.9664H131.365C131.319 51.4035 132.205 54.2664 132.148 55.331C132.052 57.0808 134.747 66.5212 134.747 66.5212C134.747 66.5212 140.388 57.3591 142.615 56.5432C144.015 56.0309 146.981 51.7682 148.994 48.665L153.132 51.0177Z" fill="black"/>
<path d="M171.788 109.416L171.307 110.023C171.307 110.023 174.79 127.578 173.826 131.564C173.662 132.283 173.569 133.016 173.547 133.753V133.784C173.377 137.84 174.597 143.105 174.597 143.105C174.597 143.105 175.571 158.621 175.016 165.002H109.811C109.429 155.566 109.018 143.341 109.391 141.985C110.021 139.748 111.281 131.634 111.281 131.634L111.419 127.789C111.419 127.789 111.419 124.072 111.532 119.932C111.581 118.07 111.652 116.116 111.755 114.383C111.887 112.203 112.072 110.367 112.326 109.465C112.482 108.781 112.572 108.083 112.595 107.382C112.595 107.316 112.595 107.249 112.607 107.181C112.607 106.971 112.628 106.743 112.637 106.509C112.637 106.444 112.637 106.378 112.637 106.298C112.677 104.94 112.662 103.33 112.618 101.66C112.618 101.569 112.618 101.477 112.618 101.384C112.582 100.132 112.53 98.8541 112.471 97.6398C112.288 93.8451 112.051 90.6365 112.051 90.6365L104.043 63.9893L106.201 58.6514L112.19 54.9663L123.263 48.2518C128.664 43.793 132.22 44.3285 133.576 44.8176C133.708 44.8627 133.837 44.9155 133.962 44.9757C134.004 44.9968 134.038 45.0136 134.069 45.0326C134.113 45.0531 134.154 45.0771 134.193 45.1043V45.1043C133.822 45.2837 133.499 45.5506 133.253 45.8822C132.975 46.2596 132.777 46.6901 132.671 47.1471C132.6 47.4304 132.551 47.7186 132.522 48.0093C132.495 48.315 132.485 48.6313 132.485 48.9496C132.5 49.6477 132.559 50.3441 132.663 51.0346C132.663 51.0472 132.663 51.0641 132.663 51.0809C132.732 51.5743 132.818 52.057 132.902 52.5103C132.901 52.518 132.901 52.5258 132.902 52.5335C132.999 53.0626 133.095 53.5517 133.161 53.9733C133.173 54.0492 133.184 54.1188 133.194 54.1842C133.24 54.4628 133.262 54.745 133.259 55.0274C133.283 55.7095 133.374 56.3875 133.532 57.0513C133.587 57.3296 133.65 57.6268 133.719 57.9367C133.813 58.3583 133.916 58.8179 134.027 59.2859C134.088 59.5431 134.153 59.8088 134.221 60.0723C134.246 60.1777 134.273 60.2831 134.298 60.3906L134.34 60.5572C134.787 62.3428 135.272 64.12 135.57 65.1951C135.747 65.8276 135.858 66.2176 135.858 66.2176C135.858 66.2176 139.019 61.0842 141.543 58.1623C141.58 58.1201 141.614 58.0801 141.65 58.0421C141.899 57.7533 142.145 57.4898 142.38 57.2579C142.894 56.7435 143.356 56.3767 143.728 56.2417C143.807 56.2126 143.884 56.1766 143.957 56.1342C144.989 55.546 146.656 53.4105 148.216 51.1737C148.369 50.9629 148.518 50.7331 148.669 50.516C149.016 50.0142 149.352 49.5104 149.669 49.0276C149.912 48.6587 150.145 48.3003 150.366 47.9587C151.415 46.3186 152.154 45.0959 152.154 45.0959L153.611 45.0305L153.865 45.0179H154.035L160.649 44.7101C160.649 44.7101 160.935 44.7585 161.405 44.8534C161.43 44.8534 161.456 44.8534 161.483 44.8703C163.83 45.3383 170.35 46.8203 170.749 48.8758C171.236 51.3929 181.753 54.7513 181.753 54.7513C181.891 56.4378 184.467 57.5488 184.467 57.5488C184.467 57.5488 188.367 67.8999 187.324 71.956C186.293 75.9615 190.007 85.8699 190.105 86.1482L189.394 87.0505L171.788 109.416Z" fill="#E8F5FF"/>
<path opacity="0.1" d="M151.499 35.4889C151.499 35.4889 157.937 33.6548 159.4 37.4305C160.864 41.2062 164.136 56.4546 164.136 56.4546C164.136 56.4546 155.639 58.0631 153.411 56.4546C152.105 55.5 150.488 55.0754 148.884 55.2656L144.078 58.5522L142.659 58.1306C142.659 58.1306 150.347 46.6537 152.018 42.7536C153.689 38.8535 154.253 37.1101 151.499 35.4889Z" fill="black"/>
<path d="M151.22 34.6456C151.22 34.6456 157.662 32.8115 159.132 36.5873C160.601 40.363 163.868 55.6113 163.868 55.6113C163.868 55.6113 155.372 57.2199 153.143 55.6113C151.837 54.6566 150.221 54.232 148.617 54.4223L143.808 57.709L142.389 57.2873C142.389 57.2873 150.076 45.8105 151.747 41.9104C153.418 38.0103 153.974 36.271 151.22 34.6456Z" fill="#E8F5FF"/>
<path opacity="0.1" d="M108.004 95.4768C108.004 95.4768 112.809 96.6658 113.716 99.3938C114.623 102.122 110.164 102.191 110.164 102.191C110.164 102.191 107.447 97.3657 108.004 95.4768Z" fill="black"/>
<path opacity="0.1" d="M125.901 115.618C125.901 115.618 114.133 139.818 116.849 142.126C119.566 144.435 125.901 115.618 125.901 115.618Z" fill="black"/>
<path opacity="0.1" d="M142.128 97.7853C142.128 97.7853 151.53 121.291 149.65 124.922C147.769 128.552 153.688 124.922 153.688 124.922L142.128 97.7853Z" fill="black"/>
<path d="M155.221 121.005C155.221 121.005 123.464 122.544 132.728 132.475C141.992 142.407 161.002 132.897 161.002 132.897L155.221 121.005Z" fill="#FFC1C7"/>
<path opacity="0.1" d="M150.626 26.5861C150.629 28.8735 150.181 31.1389 149.309 33.2522C149.018 33.2859 148.726 33.307 148.445 33.3196C148.025 32.3941 148.249 31.3253 148.258 30.3071C148.266 29.2888 147.892 28.0914 146.916 27.8173C144.97 27.2671 143.627 30.9205 141.708 30.2607C140.239 29.7589 140.623 27.5201 139.777 26.2277C139.107 25.2053 137.766 24.9165 136.723 24.2756C134.504 22.9074 134.571 20.7191 133.54 18.6489C132.461 16.4796 130.182 17.1205 128.202 18.4001C126.699 19.3741 125.402 20.679 123.794 21.4548C122.402 22.1295 120.838 22.374 119.295 22.4099C118.345 22.4468 117.395 22.346 116.474 22.1105C117.557 18.0194 120.086 14.4637 123.587 12.1065C127.089 9.74939 131.324 8.7517 135.504 9.29952C139.684 9.84734 143.523 11.9033 146.305 15.0839C149.087 18.2645 150.622 22.3527 150.624 26.5861H150.626Z" fill="black"/>
<path d="M128.208 17.8414C126.703 18.8154 125.408 20.1182 123.8 20.8983C122.408 21.5708 120.844 21.8153 119.302 21.8512C117.412 21.8933 115.378 21.5602 114.087 20.1899C112.901 18.925 112.618 16.9792 113.119 15.3201C113.621 13.6609 114.824 12.2843 116.237 11.2871C117.649 10.29 119.289 9.6006 120.225 8.17337C120.721 7.41864 120.96 6.529 121.371 5.72578C122.688 3.15593 125.647 1.76453 128.509 1.59166C131.37 1.41879 134.206 2.27471 136.931 3.20231C139.655 4.1299 142.401 5.15025 145.277 5.3421C146.557 5.42221 147.888 5.3421 149.076 5.82908C150.674 6.48051 151.721 8.03844 152.435 9.62379C153.235 11.4115 153.733 13.3637 153.649 15.3158C153.472 19.4837 150.731 23.5735 151.936 27.5664C152.255 28.631 152.853 29.7231 152.534 30.7877C152.068 32.3414 150.072 32.6956 148.457 32.7694C148.037 31.8439 148.262 30.7729 148.27 29.7568C148.279 28.7407 147.905 27.5411 146.931 27.267C144.983 26.721 143.64 30.3682 141.725 29.7104C140.266 29.2066 140.644 26.9698 139.796 25.6775C139.126 24.6529 137.783 24.3662 136.742 23.7253C134.523 22.3571 134.59 20.1688 133.559 18.0986C132.472 15.9188 130.19 16.5597 128.208 17.8414Z" fill="#99607E"/>
<path d="M97.4152 98.0635L95.8135 98.6243C95.8135 98.6243 96.4433 108.136 94.3441 110.864C92.2449 113.592 101.238 120.374 101.238 120.374C101.238 120.374 113.564 120.305 113.913 119.32C114.261 118.336 113.283 101.696 113.283 101.696C113.283 101.696 106.666 99.1071 107.223 94.9814C107.223 94.9814 105.203 104.702 102.21 104.283C99.2163 103.863 95.8177 101.352 97.4152 98.0635Z" fill="#E8F5FF"/>
<path opacity="0.1" d="M102.758 107.226C105.092 107.226 106.984 105.488 106.984 103.345C106.984 101.201 105.092 99.4634 102.758 99.4634C100.424 99.4634 98.5322 101.201 98.5322 103.345C98.5322 105.488 100.424 107.226 102.758 107.226Z" fill="black"/>
<path d="M107.378 98.344C107.378 98.344 106.538 72.6074 99.229 78.3417C91.9196 84.0759 91.8482 90.9337 93.24 92.9597C94.6317 94.9857 99.0946 105.128 99.0946 105.128C99.7927 105.534 100.577 105.769 101.382 105.812C102.188 105.855 102.993 105.707 103.73 105.377C104.467 105.048 105.116 104.548 105.624 103.919C106.132 103.289 106.484 102.548 106.652 101.755L107.378 98.344Z" fill="#FFC1C7"/>
<path opacity="0.1" d="M152.975 33.1531C152.941 33.04 152.875 32.9391 152.786 32.8622C152.425 32.5312 151.648 32.4152 150.477 32.5164L150.525 33.073C152.087 32.938 152.395 33.2501 152.435 33.3028V33.3555L152.484 33.425C152.678 33.6879 152.816 33.9886 152.889 34.3081C152.961 34.6276 152.966 34.9587 152.903 35.2802C152.561 36.9984 150.46 38.3666 150.439 38.3813L150.389 38.4109L150.357 38.4593C149.45 39.8107 144.322 43.6244 142.981 44.611L142.863 44.4761C142.263 44.9989 136.985 49.639 136.7 51.4161C136.515 52.5314 135.264 52.9635 134.811 53.0837C134.332 52.719 132.778 51.4773 131.97 50.0859C131.212 48.7767 134.263 46.2216 134.531 45.2245L134.111 44.7923C134.067 44.9525 130.15 48.6291 131.24 50.5075C132.113 52.0149 133.708 53.3051 134.267 53.7309C134.088 55.3584 132.978 64.9148 131.271 67.1789C129.151 69.9933 127.369 84.1771 127.566 89.1292C127.74 93.5289 126.596 101.839 122.776 105.408C122.114 106.053 121.316 106.54 120.442 106.832C119.567 107.124 118.637 107.214 117.723 107.095H117.677H117.631C117.576 107.095 112.034 107.664 107.378 103.722C103.568 100.503 101.41 95.2492 100.961 88.1025H100.869L100.831 86.0217C101.864 85.8598 102.794 85.3021 103.426 84.4657C104.059 83.6294 104.343 82.5795 104.221 81.5367C104.098 80.4939 103.578 79.5394 102.77 78.8737C101.961 78.208 100.927 77.8829 99.8849 77.9668C98.8427 78.0507 97.8734 78.537 97.1808 79.3235C96.4881 80.11 96.1259 81.1356 96.1704 82.1847C96.2149 83.2337 96.6625 84.2246 97.4192 84.9492C98.1759 85.6738 99.1828 86.0756 100.228 86.0702H100.275L100.312 88.1383L100.128 88.151C100.589 95.5296 102.857 100.988 106.845 104.359C109.877 106.881 113.749 108.154 117.679 107.919C117.958 107.95 118.238 107.965 118.519 107.966C120.32 107.975 122.053 107.275 123.347 106.016C127.371 102.253 128.595 93.6365 128.404 89.087C128.194 83.8398 130.064 70.1662 131.941 67.6765C133.78 65.2331 134.894 55.7126 135.09 53.8679C135.755 53.6803 137.26 53.0879 137.516 51.549C137.701 50.4358 141.226 47.0059 143.394 45.1064L143.329 45.0305C144.496 44.1746 148.126 41.4761 149.925 39.7432C150.483 39.2056 151.037 38.6681 151.617 38.1558C152.314 37.536 153.199 36.5515 153.432 35.3877C153.512 35.0036 153.512 34.6072 153.434 34.2229C153.355 33.8386 153.199 33.4746 152.975 33.1531V33.1531Z" fill="black"/>
<path d="M134.195 53.598C134.107 53.5369 132.016 52.0338 130.969 50.225C129.882 48.3466 133.799 44.6721 133.841 44.5118L134.26 44.944C133.994 45.9391 130.944 48.4963 131.702 49.8033C132.657 51.454 134.668 52.8981 134.689 52.9129L134.195 53.598Z" fill="#353146"/>
<path d="M142.708 45.02L142.38 44.5667C142.447 44.5182 149.041 39.7284 150.08 38.1789L150.114 38.1326L150.162 38.1009C150.183 38.0862 152.284 36.7201 152.626 34.9998C152.69 34.6786 152.685 34.3477 152.612 34.0285C152.54 33.7093 152.402 33.4089 152.207 33.1467L152.158 33.0751V33.0245C152.116 32.9697 151.808 32.6598 150.246 32.7947L150.198 32.236C151.371 32.1348 152.146 32.2508 152.507 32.5818C152.597 32.6594 152.663 32.761 152.698 32.8748C152.925 33.1953 153.084 33.5592 153.166 33.9439C153.247 34.3285 153.249 34.726 153.172 35.1116C152.939 36.2774 152.055 37.2619 151.356 37.8796C150.779 38.3919 150.223 38.9337 149.667 39.467C147.557 41.4972 142.939 44.8534 142.708 45.02Z" fill="#E8F5FF"/>
<path d="M100.56 85.2877L100.004 85.298L100.065 88.6937L100.622 88.6834L100.56 85.2877Z" fill="#E8F5FF"/>
<path d="M99.9576 85.8024C102.201 85.8024 104.02 83.9761 104.02 81.7231C104.02 79.4702 102.201 77.6438 99.9576 77.6438C97.7142 77.6438 95.8956 79.4702 95.8956 81.7231C95.8956 83.9761 97.7142 85.8024 99.9576 85.8024Z" fill="#626273"/>
<path d="M99.9574 85.111C101.82 85.111 103.331 83.5942 103.331 81.7232C103.331 79.8521 101.82 78.3353 99.9574 78.3353C98.0943 78.3353 96.584 79.8521 96.584 81.7232C96.584 83.5942 98.0943 85.111 99.9574 85.111Z" fill="#E8F5FF"/>
<path d="M118.254 107.694C117.974 107.694 117.693 107.679 117.415 107.649C113.485 107.882 109.613 106.609 106.581 104.089C102.592 100.716 100.329 95.2639 99.8632 87.879L100.703 87.8263C101.152 94.973 103.31 100.229 107.122 103.446C111.778 107.377 117.318 106.819 117.373 106.819H117.419H117.465C118.38 106.937 119.309 106.847 120.184 106.555C121.059 106.263 121.858 105.777 122.52 105.132C126.338 101.563 127.482 93.2527 127.308 88.853C127.098 83.8967 128.88 69.7129 131.003 66.9006C132.86 64.4362 134.013 53.3282 134.025 53.2165L134.057 52.9003L134.368 52.8455C134.387 52.8455 136.2 52.4997 136.427 51.1378C136.721 49.3628 141.99 44.7227 142.588 44.1978L143.136 44.8302C140.959 46.7276 137.435 50.1597 137.258 51.2749C137.002 52.8181 135.497 53.4083 134.834 53.5939C134.624 55.4406 133.517 64.959 131.685 67.4024C129.808 69.8921 127.938 83.5657 128.148 88.8129C128.328 93.3623 127.117 101.981 123.093 105.741C121.797 107.004 120.06 107.705 118.254 107.694Z" fill="#353146"/>
<g opacity="0.1">
<path opacity="0.1" d="M152.414 21.6023C152.758 20.3248 153.174 19.0388 153.464 17.7444C153.117 19.0451 152.7 20.3248 152.414 21.6023Z" fill="black"/>
<path opacity="0.1" d="M148.902 31.6415C148.482 30.716 148.707 29.645 148.715 28.6289C148.724 27.6127 148.35 26.4237 147.376 26.1391C145.428 25.5931 144.085 29.2424 142.17 28.5825C140.701 28.0787 141.089 25.8419 140.241 24.5496C139.571 23.525 138.23 23.2383 137.189 22.5974C134.968 21.2292 135.035 19.0409 134.006 16.9707C132.925 14.7993 130.648 15.4402 128.666 16.7219C127.161 17.6959 125.866 19.0009 124.258 19.7788C122.866 20.4513 121.302 20.6958 119.759 20.7317C117.88 20.776 115.836 20.4408 114.545 19.0704C113.55 18.0164 113.191 16.4711 113.396 15.0228C113.361 15.1219 113.329 15.2209 113.298 15.32C112.794 16.9791 113.088 18.9292 114.266 20.1899C115.557 21.5602 117.601 21.8933 119.48 21.8511C121.025 21.8153 122.587 21.5707 123.981 20.8982C125.593 20.1182 126.888 18.8154 128.389 17.8414C130.371 16.5596 132.65 15.9187 133.729 18.0902C134.758 20.1604 134.693 22.3487 136.912 23.7169C137.961 24.3493 139.294 24.6444 139.966 25.669C140.806 26.9655 140.434 29.1981 141.895 29.7019C143.808 30.3597 145.151 26.7126 147.099 27.2586C148.073 27.5326 148.449 28.7343 148.438 29.7483C148.428 30.7624 148.21 31.8354 148.625 32.7609C150.239 32.6871 152.236 32.3393 152.704 30.7792C152.768 30.5553 152.798 30.3228 152.792 30.0898C152.11 31.2725 150.355 31.5761 148.902 31.6415Z" fill="black"/>
</g>
<path opacity="0.1" d="M186.841 83.5868L189.278 86.1756C189.278 86.1756 191.228 100.442 192.202 101.776C193.177 103.111 195.477 108.419 193.317 112.405C193.317 112.405 192.62 114.575 193.038 115.483C193.456 116.392 189.906 120.939 189.906 120.939C189.906 120.939 185.239 125.135 184.263 125.765C183.287 126.395 178.136 131.43 176.396 131.499C174.655 131.569 174.086 133.738 174.086 133.738L164.266 134.088C164.266 134.088 158.842 133.803 157.662 134.573C157.662 134.573 158.292 126.25 152.232 120.794L159.961 117.996C159.961 117.996 162.887 116.731 163.792 115.41C164.361 114.599 165.169 113.988 166.101 113.662C166.101 113.662 168.259 112.123 168.328 111.284C168.398 110.445 170.967 109.416 170.967 109.416L169.512 96.9462L170.278 76.244C170.278 76.244 172.716 58.898 177.869 59.8783C183.023 60.8586 186.841 83.5868 186.841 83.5868Z" fill="black"/>
<path d="M187.681 83.5868L190.118 86.1756C190.118 86.1756 192.068 100.442 193.042 101.776C194.016 103.111 196.317 108.419 194.157 112.405C194.157 112.405 193.462 114.575 193.88 115.483C194.297 116.392 190.746 120.939 190.746 120.939C190.746 120.939 186.079 125.135 185.103 125.765C184.127 126.395 178.975 131.43 177.235 131.499C175.495 131.569 174.926 133.738 174.926 133.738L165.106 134.088C165.106 134.088 159.678 133.803 158.502 134.573C158.502 134.573 159.132 126.25 153.071 120.794L160.801 117.996C160.801 117.996 163.727 116.731 164.632 115.41C165.201 114.599 166.008 113.988 166.941 113.662C166.941 113.662 169.099 112.123 169.168 111.284C169.237 110.445 171.807 109.416 171.807 109.416L170.352 96.9462L171.118 76.244C171.118 76.244 173.555 58.898 178.709 59.8783C183.862 60.8586 187.681 83.5868 187.681 83.5868Z" fill="#E8F5FF"/>
<path opacity="0.1" d="M178.621 104.5C178.621 104.5 185.794 102.602 187.675 104.921C189.555 107.24 178.621 104.5 178.621 104.5Z" fill="black"/>
<path opacity="0.1" d="M176.95 107.681C179.387 109.395 186.908 109.464 186.908 109.464L176.95 107.681Z" fill="black"/>
<path opacity="0.1" d="M180.64 116.249C180.85 116.318 185.81 121.635 187.893 120.026C189.975 118.418 180.64 116.249 180.64 116.249Z" fill="black"/>
<path opacity="0.1" d="M113.835 71.6271C113.835 71.6271 115.292 81.7 114.574 85.8025C113.856 89.905 116.476 94.9878 116.476 94.9878L113.835 71.6271Z" fill="black"/>
<path d="M81.5834 75.7233C79.904 77.0452 78.6781 80.1737 77.7901 83.6121C76.2409 89.6098 75.735 96.5647 75.735 96.5647C75.735 96.5647 62.3631 93.4868 63.3371 92.0891C63.9501 91.21 63.1272 84.5861 62.4408 79.7837C62.0314 76.9461 61.6662 74.743 61.6662 74.743C61.6662 74.743 86.1806 72.0846 81.5834 75.7233Z" fill="#FFCCD0"/>
<path opacity="0.1" d="M81.5834 75.4429C79.904 76.7668 78.6781 79.8932 77.7901 83.3317C75.1259 84.1441 72.2925 84.2174 69.5902 83.5437C66.8878 82.8701 64.4174 81.4746 62.4408 79.5053C62.0314 76.6656 61.6662 74.4626 61.6662 74.4626C61.6662 74.4626 86.1806 71.8063 81.5834 75.4429Z" fill="black"/>
<path d="M88.7708 67.9083C88.7722 71.5751 87.4818 75.1242 85.1282 77.9274C82.7745 80.7306 79.5092 82.6072 75.9103 83.2251C72.3113 83.843 68.6107 83.1623 65.4634 81.3036C62.3161 79.4448 59.9251 76.5278 58.7135 73.0688C57.5019 69.6098 57.5478 65.8319 58.8431 62.4036C60.1384 58.9753 62.5997 56.1178 65.7912 54.3367C68.9827 52.5557 72.6987 51.9659 76.2816 52.6718C79.8645 53.3778 83.0831 55.3338 85.368 58.1939C87.5698 60.9489 88.7701 64.3757 88.7708 67.9083V67.9083Z" fill="#FFCCD0"/>
<path opacity="0.1" d="M100.963 165.002H96.5548L96.1832 157.183L95.7949 149.09C95.7949 149.09 96.7962 148.94 98.3916 148.717L99.036 148.63H99.0885C99.437 150.272 99.7812 151.959 100.113 153.643C100.665 156.634 100.952 159.667 100.971 162.708C100.971 162.919 100.971 163.13 100.971 163.328C100.984 163.891 100.971 164.454 100.963 165.002Z" fill="black"/>
<path d="M100.117 165.002H44.8327C45.072 164.456 45.2315 164.125 45.2315 164.125C45.2315 164.125 49.6545 144.692 51.9028 136.47C51.9035 136.463 51.9035 136.456 51.9028 136.449C52.1837 135.332 52.5228 134.231 52.9188 133.15V133.15C52.9444 133.076 52.9774 133.006 53.0174 132.939C54.13 131.122 55.5239 129.163 53.5737 126.366C51.6236 123.568 52.3142 111.259 52.3142 111.259C52.3142 111.259 54.6821 100.766 57.1885 95.1711C57.5689 94.3045 58.1088 93.5177 58.7797 92.8522C58.9979 92.6378 59.2308 92.4392 59.4767 92.2577V92.2577C59.6636 92.1166 59.8585 91.9863 60.0602 91.8676L60.1001 91.8423C61.153 91.2428 62.3222 90.8783 63.5281 90.7735C64.3847 90.6836 65.2493 90.7077 66.0996 90.8452C70.1637 91.4439 73.4174 92.4453 76.0036 93.5858C83.0128 96.6785 85.1351 100.823 85.1771 100.91L85.1939 100.945C85.4752 101.605 89.5896 111.252 91.0717 115.753C91.4558 116.925 91.6657 117.75 91.5818 117.975C91.1619 119.093 94.7851 133.08 94.7851 133.08C94.7851 133.08 96.4645 139.826 98.1438 147.734C98.2173 148.063 98.2866 148.392 98.3538 148.725C98.654 150.161 98.952 151.624 99.2396 153.085C99.7968 156.096 100.084 159.151 100.098 162.213C100.129 163.167 100.135 164.097 100.117 165.002Z" fill="#FF748E"/>
<path opacity="0.1" d="M63.1985 85.9627C63.1985 85.9627 59.3842 84.4869 59.4304 86.7258C59.4766 88.9647 60.3604 90.0356 60.0812 90.3624C59.802 90.6892 60.2197 92.6477 60.2197 92.6477C60.2197 92.6477 65.3732 92.6476 67.7411 93.7186C70.109 94.7895 78.8375 96.9357 79.9521 97.5892C81.0668 98.2427 85.2001 101.173 85.2001 101.173L85.5717 95.6244C85.5717 95.6244 81.2998 92.0806 74.2906 90.2633C67.2814 88.4461 63.1985 85.9627 63.1985 85.9627Z" fill="black"/>
<path d="M63.1985 85.6823C63.1985 85.6823 59.3842 84.2065 59.4304 86.4454C59.4766 88.6843 60.3604 89.7552 60.0812 90.082C59.802 90.4088 60.2197 92.3673 60.2197 92.3673C60.2197 92.3673 65.3732 92.3673 67.7411 93.4403C70.109 94.5134 78.8375 96.6574 79.9522 97.3088C81.0668 97.9602 85.2001 100.893 85.2001 100.893L85.5759 95.3609C85.5759 95.3609 81.304 91.817 74.2948 89.9998C67.2856 88.1826 63.1985 85.6823 63.1985 85.6823Z" fill="#FF748E"/>
<path opacity="0.1" d="M74.7124 99.0354C74.7124 99.0354 82.0008 106.96 81.6292 109.155C81.2577 111.349 74.7124 99.0354 74.7124 99.0354Z" fill="black"/>
<path opacity="0.1" d="M62.873 127.662C62.873 127.662 57.5306 132.606 55.9562 132.886C54.3818 133.167 57.1632 134.098 58.9727 133.354C60.7822 132.61 64.6405 130.652 64.6405 130.652L62.873 127.662Z" fill="black"/>
<path d="M102.288 165.002H89.829C88.0866 163.484 86.4388 162.078 85.3892 161.233C83.7098 159.879 82.4986 157.887 81.7261 156.285C81.5519 155.92 81.4007 155.579 81.2727 155.269C81.0434 154.735 80.8416 154.19 80.6681 153.635L89.8941 148.133C90.4039 148.568 90.883 149.039 91.3278 149.541L91.4391 149.669C91.9513 150.277 92.4026 150.966 92.4425 151.531C92.4887 152.189 94.3108 154.733 96.1728 157.177C98.062 159.662 99.9975 162.038 100.126 162.198C100.126 162.198 100.445 162.635 100.965 163.305C101.333 163.79 101.786 164.372 102.288 165.002Z" fill="#FFCCD0"/>
<path opacity="0.1" d="M85.368 58.1939C84.925 59.1974 84.5283 60.2388 84.4695 61.3561C84.3037 64.5816 84.5724 71.7937 81.0163 73.4127C79.2551 74.2096 77.37 72.4599 75.4388 72.4177C74.0491 72.3882 72.7749 73.2736 71.9268 74.3804C71.0787 75.4872 70.5518 76.8006 69.9368 78.0528C69.3769 79.1894 68.732 80.2818 68.0076 81.3205C67.7911 81.6384 67.5526 81.9406 67.2939 82.2249C65.1255 81.306 63.1947 79.9022 61.6484 78.1204C60.1021 76.3386 58.9812 74.2258 58.3712 71.9431C57.7611 69.6603 57.6779 67.2678 58.128 64.9479C58.5781 62.628 59.5496 60.4419 60.9684 58.5561C62.3872 56.6704 64.2159 55.1347 66.3151 54.0663C68.4144 52.9978 70.7288 52.4247 73.0821 52.3905C75.4353 52.3564 77.7652 52.8622 79.8943 53.8694C82.0234 54.8765 83.8955 56.3585 85.368 58.2023V58.1939Z" fill="black"/>
<path d="M84.1905 60.787C84.0226 64.0125 84.2934 71.2245 80.7352 72.8415C78.974 73.6383 77.0889 71.8907 75.1577 71.8485C73.768 71.8169 72.4959 72.7044 71.6457 73.8091C70.7955 74.9138 70.2728 76.2293 69.6557 77.4836C69.0956 78.6202 68.4507 79.7125 67.7265 80.7513C67.2941 81.3669 66.8154 81.9846 66.15 82.3303C64.9912 82.9375 63.5869 82.596 62.3442 82.2059C60.732 81.6958 59.1436 81.1209 57.579 80.4815C57.6149 80.2442 57.6331 80.0046 57.6336 79.7647C57.5874 79.8532 57.537 79.9354 57.4866 80.024L57.388 80.1969C57.2095 80.5131 57.0353 80.8293 56.8758 81.154C56.8149 81.2783 56.7561 81.4069 56.7036 81.5355C56.4925 82.0141 56.3599 82.5239 56.3111 83.045C56.204 84.4511 56.8946 85.7856 57.5076 87.0505C59.865 91.9436 61.3218 97.6651 59.548 102.799C58.7797 105.031 57.4488 107.015 56.4769 109.172C54.7779 112.991 54.2778 117.24 55.0432 121.353C55.5281 123.908 56.5 126.437 56.2607 129.028C55.8409 133.487 52.0119 136.805 48.1767 139.086C46.1048 140.313 43.5689 141.405 41.369 140.436C42.7713 138.791 43.1323 136.517 43.4346 134.37C44.2617 128.517 45.0909 122.66 45.9221 116.801C46.2538 114.469 46.5848 112.138 46.9151 109.806C47.5322 105.425 48.1578 100.996 47.7715 96.5879C47.4902 93.3392 46.6968 89.8902 48.099 86.9493C48.84 85.3914 50.1604 84.1012 50.5719 82.4231C50.9098 81.0591 50.595 79.6087 50.8175 78.2194C50.9393 77.5873 51.1454 76.9746 51.4304 76.3979C51.7933 75.6154 52.2671 74.8897 52.8369 74.2434C52.2743 74.079 51.7495 73.8534 51.4304 73.3811C52.3331 72.7909 52.4695 71.4606 52.0602 70.4613C51.6509 69.4621 50.8322 68.701 50.0953 67.9126C49.3585 67.1241 48.649 66.2049 48.5566 65.1298C48.3782 63.0828 50.4144 61.4974 50.7734 59.4778C51.1365 57.4223 49.7007 55.4238 49.8162 53.343C49.9505 50.828 52.2512 49.0002 54.5226 47.9398C57.9501 46.3463 61.7364 45.6917 65.4972 46.0424C68.5578 46.3334 71.5197 47.2841 74.572 47.6531C76.413 47.8639 78.2792 47.885 80.1076 48.2096C81.936 48.5343 83.7686 49.2194 85.0554 50.5666C88.4477 54.1188 84.3836 57.0429 84.1905 60.787Z" fill="#FFE0D0"/>
<path opacity="0.1" d="M81.3522 156.287C80.2816 155.821 78.3335 156.099 74.9895 155.077C71.6455 154.054 71.001 149.433 71.001 149.433V149.419C70.9611 149.313 70.6505 148.626 68.5471 146.218C66.2233 143.56 61.1999 130.133 61.1999 130.133C61.1999 130.133 56.7454 125.329 56.886 123.558C57.0267 121.787 56.0946 117.075 56.187 111.805C56.2794 106.534 66.2149 103.039 66.2149 103.039C85.3448 99.6341 80.84 121.783 80.3298 123.461C79.8197 125.139 82.4668 129.671 82.4668 129.671C82.0932 131.645 83.9992 134.699 83.9992 134.699C83.9992 134.699 84.4611 137.402 84.5555 138.429C84.5608 138.476 84.5713 138.523 84.587 138.568C84.8935 139.535 87.3915 140.412 88.4076 140.946C89.4761 141.507 92.9124 146.402 92.9124 146.402C93.6535 149.996 82.4186 156.759 81.3522 156.287Z" fill="black"/>
<path d="M81.9086 155.444C80.8401 154.976 78.89 155.256 75.548 154.231C72.2061 153.207 71.5596 148.59 71.5596 148.59V148.575C71.5218 148.468 71.209 147.783 69.1056 145.375C66.7818 142.717 61.7584 129.288 61.7584 129.288C61.7584 129.288 57.3039 124.485 57.4425 122.714C57.581 120.943 56.6532 116.232 56.7455 110.966C56.8379 105.699 66.7671 102.206 66.7671 102.206C85.8971 98.8014 81.3922 120.95 80.8821 122.628C80.372 124.306 83.0191 128.839 83.0191 128.839C82.6454 130.812 84.5515 133.867 84.5515 133.867C84.5515 133.867 85.0133 136.569 85.1099 137.596C85.1134 137.643 85.1233 137.69 85.1393 137.735C85.4457 138.703 87.9438 139.58 88.9619 140.113C90.0283 140.672 93.4668 145.569 93.4668 145.569C94.212 149.157 82.9771 155.92 81.9086 155.444Z" fill="#FF748E"/>
<path opacity="0.1" d="M67.145 113.769C67.145 113.769 75.5019 122.624 77.683 122.624C79.864 122.624 67.145 113.769 67.145 113.769Z" fill="black"/>
<path d="M81.9084 155.444C80.8399 154.976 78.8898 155.256 75.5479 154.231C72.2059 153.207 71.5594 148.59 71.5594 148.59V148.575C73.774 147.1 79.3831 142.932 81.5935 141.408C83.1491 140.339 84.4191 138.768 85.1622 137.727C85.4687 138.694 87.9667 139.571 88.9848 140.105C90.0512 140.663 93.4897 145.561 93.4897 145.561C94.2118 149.157 82.9769 155.92 81.9084 155.444Z" fill="#FF748E"/>
<g opacity="0.1">
<path opacity="0.1" d="M51.4429 73.4043C51.4534 73.4212 51.4681 73.4359 51.4807 73.4528C51.5436 73.3727 51.6087 73.2926 51.6759 73.2167C51.6043 73.2865 51.5263 73.3494 51.4429 73.4043V73.4043Z" fill="black"/>
<path opacity="0.1" d="M56.3132 83.0681C56.4013 81.8981 57.0248 80.8672 57.6084 79.8384C57.2263 79.6908 56.8443 79.5411 56.4664 79.3851C56.5024 79.1486 56.5206 78.9097 56.521 78.6705C55.9311 79.7246 55.2888 80.7618 55.1985 81.9487C55.0914 83.3569 55.7821 84.6893 56.395 85.9542C58.7545 90.8452 60.2093 96.5667 58.4355 101.702C57.6651 103.933 56.3363 105.919 55.3643 108.075C53.6659 111.894 53.1666 116.143 53.9327 120.254C54.4134 122.811 55.3874 125.339 55.1481 127.93C54.7283 132.389 50.9014 135.707 47.0641 137.986C45.496 138.918 43.6634 139.772 41.9106 139.71C41.7483 139.973 41.5673 140.223 41.369 140.459C43.571 141.435 46.1048 140.337 48.1767 139.105C52.0161 136.829 55.8514 133.519 56.2712 129.052C56.5105 126.461 55.5365 123.933 55.0537 121.376C54.2873 117.265 54.7852 113.017 56.4811 109.197C57.4467 107.042 58.7902 105.054 59.5522 102.824C61.3261 97.6883 59.8692 91.9667 57.5118 87.0757C56.901 85.8024 56.2061 84.4764 56.3132 83.0681Z" fill="black"/>
<path opacity="0.1" d="M85.051 50.5918C84.8445 50.3791 84.6228 50.1818 84.3877 50.0015C86.9319 53.3156 83.2583 56.1321 83.0757 59.6991C82.9119 62.9246 83.1806 70.1387 79.6225 71.7536C77.8634 72.5526 75.9762 70.8028 74.047 70.7606C72.6553 70.7311 71.3831 71.6187 70.533 72.7233C69.6828 73.828 69.1601 75.1435 68.545 76.3958C67.9839 77.5322 67.3383 78.6245 66.6138 79.6634C66.1939 80.2811 65.7027 80.8967 65.0352 81.2445C63.8806 81.8496 62.4763 81.5102 61.2314 81.118C60.0209 80.7358 58.8215 80.3141 57.6334 79.8531C57.631 80.0727 57.6127 80.2918 57.5788 80.5088C59.1448 81.1497 60.7339 81.7245 62.3461 82.2333C63.5888 82.6254 64.9932 82.9648 66.1498 82.3598C66.8153 82.0119 67.2981 81.3942 67.7284 80.7765C68.4535 79.739 69.0985 78.6473 69.6576 77.511C70.2748 76.2587 70.7954 74.9411 71.6476 73.8364C72.4999 72.7318 73.7699 71.8463 75.1596 71.8759C77.0909 71.918 78.978 73.6678 80.7372 72.8688C84.2953 71.2539 84.0245 64.0398 84.1903 60.8143C84.3835 57.0639 88.4475 54.142 85.051 50.5918Z" fill="black"/>
</g>
<path opacity="0.1" d="M57.3901 80.1989C57.2117 80.5152 57.0375 80.8314 56.8779 81.1561C56.8171 81.2804 56.7583 81.409 56.7058 81.5376C55.6058 80.4245 52.9272 77.7788 51.4326 76.9587C51.796 76.1764 52.2697 75.4508 52.8391 74.8041C52.8391 74.8041 56.4014 76.6952 57.3901 80.1989Z" fill="black"/>
<path d="M57.4888 80.0261C56.6638 76.2757 52.8391 74.2455 52.8391 74.2455C52.2692 74.8918 51.7955 75.6175 51.4326 76.4C53.0091 77.2665 55.9144 80.1716 56.8779 81.1561L57.4888 80.0261Z" fill="#FF748E"/>
</g>
<defs>
<linearGradient id="paint0_linear" x1="153.248" y1="20.114" x2="153.248" y2="16.2392" gradientUnits="userSpaceOnUse">
<stop stop-color="#808080" stop-opacity="0.25"/>
<stop offset="0.54" stop-color="#808080" stop-opacity="0.12"/>
<stop offset="1" stop-color="#808080" stop-opacity="0.1"/>
</linearGradient>
<linearGradient id="paint1_linear" x1="96305.3" y1="138824" x2="96305.3" y2="9679.09" gradientUnits="userSpaceOnUse">
<stop stop-color="#808080" stop-opacity="0.25"/>
<stop offset="0.54" stop-color="#808080" stop-opacity="0.12"/>
<stop offset="1" stop-color="#808080" stop-opacity="0.1"/>
</linearGradient>
<clipPath id="clip0">
<rect width="228" height="165" fill="white"/>
</clipPath>
</defs>
</svg>
